%YAML 1.1
%TAG !u! tag:unity3d.com,2011:
--- !u!1 &1717656956344232
GameObject:
  m_ObjectHideFlags: 0
  m_CorrespondingSourceObject: {fileID: 0}
  m_PrefabInstance: {fileID: 0}
  m_PrefabAsset: {fileID: 0}
  serializedVersion: 6
  m_Component:
  - component: {fileID: 4921910398782064}
  - component: {fileID: 65313214903047850}
  m_Layer: 0
  m_Name: Feet
  m_TagString: Untagged
  m_Icon: {fileID: 0}
  m_NavMeshLayer: 0
  m_StaticEditorFlags: 0
  m_IsActive: 1
--- !u!4 &4921910398782064
Transform:
  m_ObjectHideFlags: 0
  m_CorrespondingSourceObject: {fileID: 0}
  m_PrefabInstance: {fileID: 0}
  m_PrefabAsset: {fileID: 0}
  m_GameObject: {fileID: 1717656956344232}
  m_LocalRotation: {x: 0, y: 0, z: 0, w: 1}
  m_LocalPosition: {x: 0, y: -1, z: 0}
  m_LocalScale: {x: 1, y: 1, z: 1}
  m_Children: []
  m_Father: {fileID: 4444557259058718}
  m_RootOrder: 0
  m_LocalEulerAnglesHint: {x: 0, y: 0, z: 0}
--- !u!65 &65313214903047850
BoxCollider:
  m_ObjectHideFlags: 0
  m_CorrespondingSourceObject: {fileID: 0}
  m_PrefabInstance: {fileID: 0}
  m_PrefabAsset: {fileID: 0}
  m_GameObject: {fileID: 1717656956344232}
  m_Material: {fileID: 0}
  m_IsTrigger: 1
  m_Enabled: 1
  serializedVersion: 2
  m_Size: {x: 1, y: 0.5, z: 1}
  m_Center: {x: 0, y: 0, z: 0}
--- !u!1 &1808646060698564
GameObject:
  m_ObjectHideFlags: 0
  m_CorrespondingSourceObject: {fileID: 0}
  m_PrefabInstance: {fileID: 0}
  m_PrefabAsset: {fileID: 0}
  serializedVersion: 6
  m_Component:
  - component: {fileID: 4444557259058718}
  - component: {fileID: 136140152472299474}
  - component: {fileID: 33069760473981172}
  - component: {fileID: 23892557995243144}
  - component: {fileID: 54239069364783032}
  - component: {fileID: 114843224185904542}
  - component: {fileID: 114349785812320798}
  - component: {fileID: 114900954778277734}
  - component: {fileID: 114212145211526836}
  m_Layer: 0
  m_Name: FingersThirdPersonPlayer
  m_TagString: Player
  m_Icon: {fileID: 0}
  m_NavMeshLayer: 0
  m_StaticEditorFlags: 0
  m_IsActive: 1
--- !u!4 &4444557259058718
Transform:
  m_ObjectHideFlags: 0
  m_CorrespondingSourceObject: {fileID: 0}
  m_PrefabInstance: {fileID: 0}
  m_PrefabAsset: {fileID: 0}
  m_GameObject: {fileID: 1808646060698564}
  m_LocalRotation: {x: 0, y: 0, z: 0, w: 1}
  m_LocalPosition: {x: 0, y: 1, z: 0}
  m_LocalScale: {x: 1, y: 1, z: 1}
  m_Children:
  - {fileID: 4921910398782064}
  m_Father: {fileID: 0}
  m_RootOrder: 0
  m_LocalEulerAnglesHint: {x: 0, y: 0, z: 0}
--- !u!136 &136140152472299474
CapsuleCollider:
  m_ObjectHideFlags: 0
  m_CorrespondingSourceObject: {fileID: 0}
  m_PrefabInstance: {fileID: 0}
  m_PrefabAsset: {fileID: 0}
  m_GameObject: {fileID: 1808646060698564}
  m_Material: {fileID: 13400000, guid: 0414c9b9b34a9fa428137f478f65c20a, type: 2}
  m_IsTrigger: 0
  m_Enabled: 1
  m_Radius: 0.5
  m_Height: 2
  m_Direction: 1
  m_Center: {x: 0, y: 0, z: 0}
--- !u!33 &33069760473981172
MeshFilter:
  m_ObjectHideFlags: 0
  m_CorrespondingSourceObject: {fileID: 0}
  m_PrefabInstance: {fileID: 0}
  m_PrefabAsset: {fileID: 0}
  m_GameObject: {fileID: 1808646060698564}
  m_Mesh: {fileID: 10208, guid: 0000000000000000e000000000000000, type: 0}
--- !u!23 &23892557995243144
MeshRenderer:
  m_ObjectHideFlags: 0
  m_CorrespondingSourceObject: {fileID: 0}
  m_PrefabInstance: {fileID: 0}
  m_PrefabAsset: {fileID: 0}
  m_GameObject: {fileID: 1808646060698564}
  m_Enabled: 1
  m_CastShadows: 1
  m_ReceiveShadows: 1
  m_DynamicOccludee: 1
  m_MotionVectors: 1
  m_LightProbeUsage: 1
  m_ReflectionProbeUsage: 1
  m_RenderingLayerMask: 1
  m_RendererPriority: 0
  m_Materials:
  - {fileID: 10303, guid: 0000000000000000f000000000000000, type: 0}
  m_StaticBatchInfo:
    firstSubMesh: 0
    subMeshCount: 0
  m_StaticBatchRoot: {fileID: 0}
  m_ProbeAnchor: {fileID: 0}
  m_LightProbeVolumeOverride: {fileID: 0}
  m_ScaleInLightmap: 1
  m_ReceiveGI: 1
  m_PreserveUVs: 0
  m_IgnoreNormalsForChartDetection: 0
  m_ImportantGI: 0
  m_StitchLightmapSeams: 1
  m_SelectedEditorRenderState: 3
  m_MinimumChartSize: 4
  m_AutoUVMaxDistance: 0.5
  m_AutoUVMaxAngle: 89
  m_LightmapParameters: {fileID: 0}
  m_SortingLayerID: 0
  m_SortingLayer: 0
  m_SortingOrder: 0
--- !u!54 &54239069364783032
Rigidbody:
  m_ObjectHideFlags: 0
  m_CorrespondingSourceObject: {fileID: 0}
  m_PrefabInstance: {fileID: 0}
  m_PrefabAsset: {fileID: 0}
  m_GameObject: {fileID: 1808646060698564}
  serializedVersion: 2
  m_Mass: 25
  m_Drag: 0.4
  m_AngularDrag: 1
  m_UseGravity: 1
  m_IsKinematic: 0
  m_Interpolate: 0
  m_Constraints: 112
  m_CollisionDetection: 1
--- !u!114 &114843224185904542
MonoBehaviour:
  m_ObjectHideFlags: 0
  m_CorrespondingSourceObject: {fileID: 0}
  m_PrefabInstance: {fileID: 0}
  m_PrefabAsset: {fileID: 0}
  m_GameObject: {fileID: 1808646060698564}
  m_Enabled: 1
  m_EditorHideFlags: 0
  m_Script: {fileID: 11500000, guid: edab86c79ce6b7041a2d3b209f9d5b91, type: 3}
  m_Name: 
  m_EditorClassIdentifier: 
  Player: {fileID: 54239069364783032}
  PlayerFeet: {fileID: 65313214903047850}
  MoveSpeed: 16
  MovePower: 0.5
  JumpSpeed: 10
  JumpCooldown: 0.3
  JumpMask:
    serializedVersion: 2
    m_Bits: 4294967295
  CameraZOffset: 10
  CameraYOffset: 5
  ZoomDampening: 10
  CameraZDistanceRange: {x: 5, y: 30}
--- !u!114 &114349785812320798
MonoBehaviour:
  m_ObjectHideFlags: 0
  m_CorrespondingSourceObject: {fileID: 0}
  m_PrefabInstance: {fileID: 0}
  m_PrefabAsset: {fileID: 0}
  m_GameObject: {fileID: 1808646060698564}
  m_Enabled: 1
  m_EditorHideFlags: 0
  m_Script: {fileID: 11500000, guid: 65d2a31af5280f441a65e4196ea0483b, type: 3}
  m_Name: 
  m_EditorClassIdentifier: 
  PanUnitsForMaxMove: 1.5
  TapToJump: 1
  PanPlatformSpecificView: {fileID: 0}
  TapPlatformSpecificView: {fileID: 0}
  PanGestureThresholdUnits: 0.1
  TapGestureThresholdUnits: 4
  PanAnchor: {fileID: 0}
  PanAnchorLine: {fileID: 0}
  CrossPlatformInputHorizontalAxisName: 
  CrossPlatformInputVerticalAxisName: 
  CrossPlatformInputJumpAxisName: 
  PanCallback:
    m_PersistentCalls:
      m_Calls:
      - m_Target: {fileID: 114843224185904542}
        m_MethodName: Moved
        m_Mode: 0
        m_Arguments:
          m_ObjectArgument: {fileID: 0}
          m_ObjectArgumentAssemblyTypeName: UnityEngine.Object, UnityEngine
          m_IntArgument: 0
          m_FloatArgument: 0
          m_StringArgument: 
          m_BoolArgument: 0
        m_CallState: 2
    m_TypeName: DigitalRubyShared.GestureRecognizerComponentEventVector2, Fingers,
      Version=0.0.0.0, Culture=neutral, PublicKeyToken=null
  TapCallback:
    m_PersistentCalls:
      m_Calls:
      - m_Target: {fileID: 114843224185904542}
        m_MethodName: Jumped
        m_Mode: 1
        m_Arguments:
          m_ObjectArgument: {fileID: 0}
          m_ObjectArgumentAssemblyTypeName: UnityEngine.Object, UnityEngine
          m_IntArgument: 0
          m_FloatArgument: 0
          m_StringArgument: 
          m_BoolArgument: 0
        m_CallState: 2
    m_TypeName: DigitalRubyShared.GestureRecognizerComponentEvent, Fingers, Version=0.0.0.0,
      Culture=neutral, PublicKeyToken=null
--- !u!114 &114900954778277734
MonoBehaviour:
  m_ObjectHideFlags: 0
  m_CorrespondingSourceObject: {fileID: 0}
  m_PrefabInstance: {fileID: 0}
  m_PrefabAsset: {fileID: 0}
  m_GameObject: {fileID: 1808646060698564}
  m_Enabled: 1
  m_EditorHideFlags: 0
  m_Script: {fileID: 11500000, guid: 718bac4243f118048a7dbde6110bf929, type: 3}
  m_Name: 
  m_EditorClassIdentifier: 
  GestureStateUpdated:
    m_PersistentCalls:
      m_Calls:
      - m_Target: {fileID: 114843224185904542}
        m_MethodName: Scaled
        m_Mode: 0
        m_Arguments:
          m_ObjectArgument: {fileID: 0}
          m_ObjectArgumentAssemblyTypeName: UnityEngine.Object, UnityEngine
          m_IntArgument: 0
          m_FloatArgument: 0
          m_StringArgument: 
          m_BoolArgument: 0
        m_CallState: 2
    m_TypeName: DigitalRubyShared.GestureRecognizerComponentStateUpdatedEvent, Fingers,
      Version=0.0.0.0, Culture=neutral, PublicKeyToken=null
  GestureView: {fileID: 0}
  MinimumNumberOfTouchesToTrack: 1
  MaximumNumberOfTouchesToTrack: 1
  AllowSimultaneousExecutionWith: []
  AllowSimultaneousExecutionWithAllGestures: 0
  RequireGestureRecognizersToFail: []
  ClearTrackedTouchesOnEndOrFail: 0
  Mask: {fileID: 0}
  ZoomSpeed: 2
  ThresholdUnits: 0.15
--- !u!114 &114212145211526836
MonoBehaviour:
  m_ObjectHideFlags: 0
  m_CorrespondingSourceObject: {fileID: 0}
  m_PrefabInstance: {fileID: 0}
  m_PrefabAsset: {fileID: 0}
  m_GameObject: {fileID: 1808646060698564}
  m_Enabled: 1
  m_EditorHideFlags: 0
  m_Script: {fileID: 11500000, guid: b787641395ab476418b5f63f5839881f, type: 3}
  m_Name: 
  m_EditorClassIdentifier: 
  OrbitTarget: {fileID: 4444557259058718}
  Orbiter: {fileID: 0}
  Axis: {x: 0, y: 1, z: 0}
  RotationSpeed: 256
  RotationDampening: 10
